{
    "containerDefinitions": [
        {
            "cpu": 1024,
            "essential": true,
            "image": "008363129475.dkr.ecr.us-east-2.amazonaws.com/real-flask:aaa",
            "memory": 300,
            "name": "real-flask",
            "portMappings": [
                {
                    "containerPort": 7345,
                    "hostPort": 80
                }
            ]
        }
    ],
    "family": "real-flask"
}